…
``` r
nyc_airbnb |> 
  filter(
    price<1000,
    room_type == "Entire home/apt",
    neighbourhood_group == "Manhattan")|>
  group_by(neighbourhood)|>
  summarize(
    n_apt = n(),
    mean_price = mean(price))|>
  arrange((mean_price)) # sort mean_price
```

    ## # A tibble: 32 × 3
    ##    neighbourhood       n_apt mean_price
    ##    <chr>               <int>      <dbl>
    ##  1 Marble Hill             6       101.
    ##  2 Inwood                 88       119.
    ##  3 Roosevelt Island        8       131.
    ##  4 Washington Heights    260       133.
    ##  5 Morningside Heights   157       151.
    ##  6 East Harlem           431       163.
    ##  7 Harlem                964       164.
    ##  8 Two Bridges            21       174.
    ##  9 Upper East Side      1001       193.
    ## 10 Lower East Side       522       205.
    ## # ℹ 22 more rows
…
